{
  "page": 1,
  "perPage": 1,
  "totalItems": 100,
  "totalPages": 100,
  "items": [
    {
      "id": "cstats001",
      "system": "sys001homela",
      "type": "1m",
      "stats": [
        {
          "n": "nginx",
          "c": 0.4,
          "m": 48.2,
          "b": [204800, 102400]
        },
        {
          "n": "postgres",
          "c": 2.1,
          "m": 512.0,
          "b": [51200, 25600]
        },
        {
          "n": "redis",
          "c": 0.1,
          "m": 32.5,
          "b": [10240, 5120]
        },
        {
          "n": "grafana",
          "c": 1.8,
          "m": 256.3,
          "b": [307200, 153600]
        }
      ],
      "created": "2026-06-24T14:00:00.000Z",
      "updated": "2026-06-24T14:00:00.000Z"
    }
  ]
}
