{
  "page": 1,
  "perPage": 1,
  "totalItems": 500,
  "totalPages": 500,
  "items": [
    {
      "id": "stats001",
      "system": "sys001homela",
      "type": "1m",
      "stats": {
        "cpu": 8.3,
        "m": 31.9,
        "mu": 19.9,
        "mp": 62.4,
        "mb": 4.1,
        "s": 0.0,
        "d": 1863.0,
        "du": 840.3,
        "dp": 45.1,
        "dw": 0.02,
        "t": {
          "cpu_thermal": 52,
          "ddr_thermal": 40,
          "gpu_thermal": 38,
          "ve_thermal": 41
        },
        "b": [1024000, 512000],
        "la": [0.82, 0.74, 0.68],
        "ni": {
          "eth0": [1024000, 512000, 0, 0]
        },
        "dio": [1024, 2048],
        "cpub": [8.1, 9.2, 7.8, 8.5, 8.0, 8.9, 7.3, 8.6],
        "cpus": [8.3, 0, 0, 0],
        "dios": [1024, 2048, 0, 0, 0, 0]
      },
      "created": "2026-06-24T14:00:00.000Z",
      "updated": "2026-06-24T14:00:00.000Z"
    }
  ]
}
